0.00389
0.001826
-0.000804
-0.003381
-0.004936
-0.005023
-0.003294
-0.000269
0.003346
0.006705
0.009109
0.010111
0.009154
0.006381
0.002522
-0.001585
-0.005005
-0.006993
-0.007152
-0.005778
-0.003363
-0.000608
0.001859
0.003275
0.003495
0.002193
2.7e-05
-0.002323
-0.004315
-0.005158
-0.004543
-0.002695
0.000204
0.003358
0.006215
0.008206
0.008346
0.006693
0.003487
-0.000753
-0.004701
-0.007701
-0.009119
-0.008402
-0.006272
-0.003363
-0.000165
0.002258
0.002926
0.001469
-0.001873
-0.006372
-0.010888
-0.014419
-0.016045
-0.015301
-0.012177
-0.007453
-0.00193
0.002908
0.005991
0.006741
0.005148
0.00175
-0.002605
-0.006867
-0.009862
-0.010619
-0.008931
-0.005581
-0.001153
0.002943
0.005817
0.006863
0.005619
0.002485
-0.001962
-0.006698
-0.010479
-0.012449
-0.011719
-0.008793
-0.004425
0.000279
0.004255
0.006689
0.00695
0.00538
0.002007
-0.001806
-0.005093
-0.006815
-0.006487
-0.004212
-0.000555
0.003747
0.007502
0.009715
0.009495
0.006688
0.001752
-0.004209
-0.010026
-0.014189
-0.01591
-0.014851
-0.011383
-0.006656
-0.001602
0.002646
0.004801
0.004185
0.001036
-0.003979
-0.00932
-0.013775
-0.01603
-0.015334
-0.011545
-0.005472
0.001278
0.007339
0.01132
0.01231
0.010023
0.005092
-0.001287
-0.007453
-0.011832
-0.013247
-0.011542
-0.006993
-0.000995
0.005191
0.009698
0.011553
0.010471
0.006842
0.00169
-0.003774
-0.007803
-0.009412
-0.007982
-0.003653
0.002219
0.007888
0.012171
0.013878
0.01234
0.007751
0.001187
-0.00553
-0.011049
-0.013919
-0.013839
-0.01064
-0.005432
0.00045
0.005351
0.00798
0.007515
0.004041
-0.001774
-0.008444
-0.014484
-0.018419
-0.019384
-0.017059
-0.012054
-0.005614
0.000921
0.006078
0.008633
0.008273
0.005026
0.00019
-0.005208
-0.009351
-0.011419
-0.010599
-0.006992
-0.001628
0.004197
0.009108
0.012219
0.012515
0.010028
0.005348
-4.8e-05
-0.005029
-0.008168
-0.00853
-0.006166
-0.001822
0.003523
0.008261
0.011218
0.011616
0.009238
0.004738
-0.000697
-0.005877
-0.009576
-0.010686
-0.009084
-0.005415
-0.000616
0.003726
0.006727
0.00762
0.005984
0.002128
-0.003158
-0.008404
-0.012454
-0.014296
-0.013316
-0.010107
-0.005482
-0.000534
0.003297
0.005116
0.004814
0.00215
-0.001925
-0.006446
-0.010047
-0.012004
-0.011757
-0.009087
-0.004741
0.000258
0.004751
0.007995
0.009053
0.008025
0.005371
0.001645
-0.001846
-0.004101
-0.004513
-0.002788
0.000435
0.00428
0.007883
0.010838
0.012235
0.011524
0.008949
0.004967
0.000585
-0.003373
-0.006055
-0.007087
-0.006285
-0.004186
-0.001527
0.000812
0.002231
0.001851
-8.2e-05
-0.003265
-0.00704
-0.010415
-0.012399
-0.012532
-0.011018
-0.007967
-0.004396
-0.000922
0.00181
0.002753
0.002102
0.00012
-0.002651
-0.005559
-0.007711
-0.00871
-0.008224
-0.00623
-0.003215
3.7e-05
0.002859
0.004672
0.005129
0.004074
0.00216
-0.000357
-0.002735
-0.004301
-0.004919
-0.004153
-0.001944
0.001133
0.004538
0.007693
0.0101
0.010897
0.010011
0.007722
0.005238
0.002439
0.000224
-0.000801
-0.000438
0.000736
0.002286
0.003913
0.004714
0.00424
0.002163
-0.001069
-0.005004
-0.008868
-0.011983
-0.01366
-0.013908
-0.012615
-0.010265
-0.007497
-0.004906
-0.002945
-0.002151
-0.002493
-0.003776
-0.005357
-0.006532
-0.006813
-0.005932
-0.003837
-0.00064
0.00297
0.006201
0.008337
0.008912
0.007952
0.005614
0.002462
-0.00066
-0.002839
-0.003975
-0.003696
-0.001671
0.001145
0.003857
0.005835
0.006457
0.005967
0.004377
0.001834
-0.000795
-0.002957
-0.004066
-0.003524
-0.001666
0.001072
0.003894
0.00611
0.007363
0.007206
0.005738
0.003067
-0.00011
-0.003279
-0.005844
-0.007174
-0.007358
-0.006571
-0.005273
-0.003923
-0.003139
-0.003386
-0.004497
-0.006338
-0.00853
-0.010419
-0.011478
-0.01142
-0.010089
-0.007813
-0.004724
-0.00129
0.001627
0.003788
0.004817
0.004662
0.003575
0.002085
0.000953
0.000551
0.001083
0.002454
0.004719
0.007238
0.00901
0.009716
0.009315
0.007609
0.004935
0.001829
-0.001099
-0.003227
-0.003965
-0.003481
-0.001956
-1.4e-05
0.001826
0.003335
0.003931
0.003214
0.001491
-0.000969
-0.003468
-0.005453
-0.006506
-0.006407
-0.005427
-0.003625
-0.001826
-0.000341
0.000302
0.000245
-0.001004
-0.003031
-0.005326
-0.007418
-0.008896
-0.009363
-0.008678
-0.007013
-0.004685
-0.002504
-0.000724
0.000332
0.000782
0.000434
-0.000464
-0.00154
-0.002371
-0.002551
-0.001588
0.000366
0.002777
0.005258
0.007253
0.008512
0.008595
0.007775
0.006292
0.004361
0.002472
0.001158
0.000652
0.001283
0.002643
0.004274
0.005548
0.006249
0.005757
0.004236
0.001635
-0.001536
-0.004898
-0.007757
-0.009431
-0.009782
-0.00883
-0.007105
-0.004679
-0.002352
-0.000825
-0.000441
-0.001293
-0.003324
-0.005647
-0.008068
-0.009735
-0.010166
-0.009067
-0.006608
-0.003296
-0.000107
0.002566
0.003991
0.00398
0.002913
0.000946
-0.001364
-0.003096
-0.003706
-0.00304
-0.001031
0.001665
0.004428
0.006755
0.008132
0.008373
0.007245
0.005109
0.002461
0.000205
-0.00123
-0.001415
-0.000272
0.001939
0.004365
0.006458
0.007682
0.007444
0.00564
0.002593
-0.001112
-0.004944
-0.007814
-0.009062
-0.008726
-0.006758
-0.003863
-0.000906
0.001271
0.001996
0.001009
-0.001443
-0.004996
-0.008609
-0.011552
-0.012807
-0.01236
-0.010015
-0.006168
-0.001691
0.002092
0.004563
0.005328
0.004215
0.001907
-0.000937
-0.003585
-0.005415
-0.005562
-0.004219
-0.001482
0.001942
0.005412
0.007748
0.008842
0.008371
0.00663
0.003971
0.000976
-0.001274
-0.00224
-0.001568
0.000481
0.003231
0.005944
0.008103
0.008888
0.008011
0.005789
0.002382
-0.001297
-0.00451
-0.00655
-0.007015
-0.006036
-0.003709
-0.001226
0.000668
0.001486
0.000989
-0.000895
-0.003807
-0.007151
-0.010134
-0.012078
-0.012373
-0.011156
-0.008675
-0.005356
-0.001925
0.000834
0.0027
0.00313
0.002116
0.000323
-0.001839
-0.003398
-0.004023
-0.003343
-0.001537
0.000993
0.003565
0.005645
0.006884
0.006939
0.005739
0.003675
0.00136
-0.000776
-0.00219
-0.002592
-0.002033
-0.000645
0.00133
0.003263
0.004547
0.004771
0.004035
0.002525
0.000549
-0.001367
-0.002777
-0.003295
-0.002871
-0.001596
-5.5e-05
0.001286
0.002054
0.002068
0.001272
-0.000376
-0.002643
-0.004935
-0.006837
-0.00799
-0.00797
-0.006992
-0.005381
-0.003587
-0.001718
-0.000404
8.6e-05
-0.00035
-0.001312
-0.002691
-0.003959
-0.00478
-0.004786
-0.003804
-0.002029
0.000321
0.002873
0.004934
0.006271
0.006525
0.006001
0.004602
0.00311
0.001612
0.000394
-9.6e-05
0.000269
0.00115
0.002348
0.003445
0.004004
0.003723
0.002816
0.001305
-0.000579
-0.002531
-0.003937
-0.004687
-0.004663
-0.004011
-0.002807
-0.001398
-0.000462
0.000269
0.000387
-0.000112
-0.00094
-0.002094
-0.002856
-0.003343
-0.003469
-0.003316
-0.002735
-0.001741
-0.000921
-0.000357
-0.000539
-0.001197
-0.002271
-0.003583
-0.00469
-0.005444
-0.00552
-0.004964
-0.003756
-0.002074
-0.000268
0.001392
0.002526
0.002942
0.002752
0.002068
0.00138
0.000791
0.00077
0.001188
0.00205
0.003074
0.004066
0.004882
0.00511
0.004898
0.004155
0.002997
0.001731
0.000348
-0.000777
-0.001424
-0.001939
-0.002343
-0.002454
-0.002312
-0.002382
-0.002802
-0.003389
-0.003965
-0.004472
-0.004934
-0.005162
-0.005107
-0.004753
-0.003945
-0.003195
-0.002506
-0.001839
-0.001217
-0.00096
-0.000612
-0.000519
-0.0006
-0.000566
-0.000249
1.1e-05
0.000322
0.000821
0.001214
0.001371
0.001398
0.001328
0.001254
0.001041
0.000783
0.000466
-0.000198
-0.000643
-0.000938
-0.001349
-0.001553
-0.001304
-0.000633
6.1e-05
0.000881
0.00146
0.001906
0.002102
0.002131
0.002052
0.001771
0.001342
0.000853
0.000566
0.000543
0.000523
0.000306
8.6e-05
-0.000169
-0.00043
-0.001004
-0.00161
-0.002244
-0.002905
-0.003567
-0.00404
-0.004317
-0.004409
-0.004191
-0.003704
-0.002743
-0.002074
-0.001619
-0.001408
-0.001221
-0.001266
-0.001301
-0.001384
-0.001395
-0.001031
-0.000568
-1.6e-05
0.000705
0.001332
0.001841
0.001978
0.001795
0.001153
0.000516
-0.000111
-0.000615
-0.000965
-0.000697
-0.000138
0.000525
0.001092
0.001247
0.001138
0.00075
-4.5e-05
-0.000909
-0.001728
-0.002219
-0.002182
-0.001753
-0.000915
-4.7e-05
0.000701
0.001114
0.00118
0.000887
0.000295
-0.000468
-0.001147
-0.001675
-0.001943
-0.001876
-0.001456
-0.000841
-0.00038
-0.00031
-0.000556
-0.001217
-0.002048
-0.003052
-0.004008
-0.004616
-0.004795
-0.004586
-0.003857
-0.00293
-0.001865
-0.000888
-0.000186
9.4e-05
-3.6e-05
-0.000152
-0.000427
-0.000662
-0.000565
-0.000264
0.000361
0.001432
0.002635
0.003372
0.003601
0.003267
0.002384
0.001235
0.000173
-0.000859
-0.001559
-0.001925
-0.001598
-0.000948
-0.000196
0.00046
0.000991
0.000929
0.000466
-0.000181
-0.00106
-0.00184
-0.002626
-0.002807
-0.002454
-0.001502
-0.000342
0.00068
0.001241
0.00116
0.000703
5.3e-05
-0.000728
-0.001523
-0.002144
-0.002352
-0.002402
-0.002019
-0.001501
-0.001092
-0.000866
-0.000955
-0.001551
-0.002314
-0.003093
-0.00365
-0.003917
-0.003809
-0.003181
-0.002095
-0.001071
-9.8e-05
0.000754
0.001326
0.001651
0.001534
0.001104
0.000842
0.000523
0.000482
0.000566
0.001101
0.001682
0.002149
0.002427
0.002373
0.001981
0.00133
0.000455
-0.000558
-0.001525
-0.002329
-0.002896
-0.002928
-0.002516
-0.001879
-0.001149
-0.000622
-0.000359
-0.000458
-0.000958
-0.001817
-0.002708
-0.003362
-0.003357
-0.002901
-0.00202
-0.000957
-1e-05
0.000795
0.001315
0.001049
0.000238
-0.000779
-0.001812
-0.002901
-0.0034
-0.003372
-0.002957
-0.002362
-0.001455
-0.000678
-0
0.000258
-3e-06
-0.000595
-0.001252
-0.001755
-0.001885
-0.001565
-0.000873
6.6e-05
0.00134
0.002675
0.003507
0.003763
0.003626
0.003234
0.002553
0.001614
0.000734
-3.7e-05
-0.000422
-0.000516
-0.000289
0.000167
0.000461
0.000685
0.000538
0.000112
-0.000909
-0.002059
-0.003048
-0.003749
-0.003962
-0.003817
-0.003366
-0.002609
-0.001515
-0.000555
-0.000138
-6.3e-05
-0.000562
-0.00147
-0.002847
-0.003926
-0.004557
-0.004376
-0.003557
-0.002295
-0.000774
0.000701
0.001463
0.001615
0.001181
0.000208
-0.000992
-0.00201
-0.002654
-0.002792
-0.002134
-0.000999
0.000385
0.00168
0.002906
0.003754
0.00377
0.003196
0.002046
0.000861
-0.0002
-0.000766
-0.000671
-0.000142
0.000686
0.001657
0.002387
0.002778
0.002445
0.001657
0.000385
-0.001047
-0.00228
-0.003254
-0.003613
-0.003237
-0.002372
-0.001486
-0.0008
-0.000414
-0.000518
-0.001286
-0.002352
-0.003549
-0.004459
-0.00503
-0.004843
-0.00411
-0.002998
-0.001384
-7.5e-05
0.00099
0.001632
0.001366
0.000631
-0.000442
-0.001509
-0.002354
-0.002537
-0.00244
-0.001805
-0.0007
0.000616
0.001935
0.002913
0.00316
0.003097
0.002512
0.001465
0.000543
-0.000313
-0.000686
-0.000422
0.000123
0.001087
0.002139
0.002991
0.003368
0.003197
0.002558
0.001362
0.00019
-0.001104
-0.002015
-0.002443
-0.002555
-0.002539
-0.002376
-0.002321
-0.002472
-0.002982
-0.003479
-0.003961
-0.004848
-0.005565
-0.00582
-0.005706
-0.005416
-0.004833
-0.003966
-0.002945
-0.001975
-0.001078
-0.00056
-0.000211
-0.000274
-0.0003
-0.000264
-0.000222
5.8e-05
0.00065
0.001415
0.00237
0.003078
0.003592
0.003717
0.003446
0.002737
0.001773
0.000573
-0.000531
-0.001341
-0.001511
-0.001181
-0.000598
0.000388
0.001409
0.002245
0.002725
0.002794
0.00252
0.001762
0.00078
-0.000378
-0.00123
-0.001668
-0.001598
-0.001167
-0.000896
-0.000669
-0.000601
-0.000864
-0.001424
-0.002387
-0.003648
-0.004905
-0.005814
-0.006082
-0.005683
-0.005024
-0.003924
-0.002793
-0.001984
-0.001434
-0.001284
-0.001427
-0.001715
-0.001863
-0.001938
-0.00155
-0.000691
0.000711
0.00234
0.003748
0.004847
0.005257
0.005134
0.004381
0.003295
0.002043
0.000825
0.000129
7.6e-05
0.000353
0.000792
0.001256
0.001539
0.001585
0.001178
0.000547
-0.000544
-0.001926
-0.003025
-0.003685
-0.004044
-0.003712
-0.002819
-0.001662
-0.000543
0.000148
0.000328
8.1e-05
-0.000782
-0.001991
-0.003212
-0.004202
-0.004614
-0.004401
-0.00368
-0.002837
-0.002098
-0.001653
-0.001693
-0.002244
-0.003151
-0.004013
-0.004751
-0.005001
-0.004702
-0.003613
-0.00196
-0.000253
0.001236
0.0025
0.003152
0.003066
0.002629
0.001793
0.001127
0.000504
0.000506
0.001071
0.002067
0.003353
0.004661
0.005624
0.006146
0.005824
0.004968
0.003603
0.002199
0.000587
-0.000584
-0.001328
-0.001472
-0.001299
-0.000948
-0.000597
-0.000594
-0.001014
-0.001973
-0.003323
-0.004798
-0.0059
-0.006499
-0.006551
-0.006053
-0.005212
-0.004052
-0.002721
-0.001687
-0.001267
-0.001391
-0.001557
-0.002005
-0.002428
-0.00252
-0.002245
-0.00158
-0.000856
0.000253
0.001511
0.002641
0.0031
0.002982
0.00259
0.00165
0.000635
-0.000326
-0.001035
-0.001043
-0.00046
0.000533
0.001622
0.00258
0.00316
0.003166
0.002851
0.002214
0.001145
0.000203
-0.000694
-0.001202
-0.001212
-0.000948
-0.00064
-0.000151
1.6e-05
3.7e-05
-0.000501
-0.001294
-0.002366
-0.003529
-0.004518
-0.005109
-0.005254
-0.004884
-0.004137
-0.003271
-0.00245
-0.001868
-0.001606
-0.00167
-0.002009
-0.002602
-0.003336
-0.00366
-0.003556
-0.00292
-0.001959
-0.000675
0.000706
0.001929
0.002538
0.002613
0.002204
0.001757
0.001077
0.000511
0.000214
0.000365
0.001055
0.002045
0.002982
0.003706
0.003972
0.003859
0.002984
0.001739
0.000374
-0.001094
-0.002348
-0.003017
-0.002979
-0.002544
-0.001823
-0.000983
-0.00034
-0.000114
-0.000215
-0.000663
-0.001428
-0.002478
-0.003206
-0.003597
-0.003466
-0.002936
-0.001895
-0.001054
-0.000504
-0.00048
-0.001001
-0.001797
-0.002792
-0.003808
-0.004648
-0.00531
-0.005191
-0.004254
-0.002741
-0.001182
0.000368
0.0016
0.002201
0.002056
0.001371
0.000554
-0.000117
-0.00032
-3.7e-05
0.000724
0.001815
0.002905
0.003859
0.004242
0.004222
0.003936
0.003038
0.001725
0.000378
-0.000646
-0.001323
-0.001261
-0.000551
0.000369
0.001423
0.002214
0.002269
0.0016
0.000202
-0.001604
-0.003425
-0.004775
-0.005689
-0.005677
-0.004836
-0.003475
-0.00218
-0.0011
-0.000204
-8.1e-05
-0.000526
-0.001474
-0.002595
-0.003471
-0.003706
-0.003454
-0.002699
-0.001772
-0.000604
0.000489
0.001176
0.001244
0.000897
0.000142
-0.000459
-0.000972
-0.001329
-0.001281
-0.000896
-0.000101
0.000894
0.002107
0.002956
0.00332
0.00316
0.002545
0.001642
0.000718
-0.000283
-0.001068
-0.001427
-0.001401
-0.000973
-0.000339
0.00042
0.000971
0.000928
0.00045
-0.000396
-0.001594
-0.002787
-0.00382
-0.004512
-0.00467
-0.003972
-0.003012
-0.002078
-0.000995
-0.000201
-0.000363
-0.000969
-0.001721
-0.002534
-0.003188
-0.003388
-0.003137
-0.002586
-0.001699
-0.000714
0.000253
0.000701
0.000828
0.00047
-0.000225
-0.000854
-0.001146
-0.00132
-0.001234
-0.000824
-0.000283
0.000586
0.001478
0.002479
0.003106
0.003084
0.002461
0.001695
0.000902
4.2e-05
-0.000468
-0.000519
-0.00022
0.000257
0.001089
0.001501
0.001621
0.001355
0.000597
-0.000521
-0.002038
-0.003339
-0.004351
-0.004801
-0.004678
-0.003903
-0.002699
-0.00167
-0.000859
-0.000272
4.1e-05
-8e-06
-0.000333
-0.001009
-0.001598
-0.0018
-0.001801
-0.001386
-0.000606
0.000186
0.00086
0.001178
0.001112
0.00066
-5.2e-05
-0.001266
-0.002345
-0.002855
-0.0027
-0.001924
-0.000855
0.000335
0.001536
0.002442
0.002679
0.002345
0.001632
0.000751
-0.000206
-0.000868
-0.001095
-0.001066
-0.000674
-0.0001
0.000526
0.001071
0.001311
0.000994
0.000334
-0.000595
-0.00169
-0.002627
-0.003142
-0.003259
-0.00289
-0.00212
-0.000958
-3.5e-05
0.000559
0.00073
0.000503
-0.000117
-0.000835
-0.001631
-0.002274
-0.002591
-0.002475
-0.001852
-0.001157
-0.000603
-0.000145
0.000376
0.000558
0.000505
0.000161
-0.000392
-0.001148
-0.001729
-0.001646
-0.001348
-0.000688
9.6e-05
0.000781
0.001027
0.000986
0.000704
3.2e-05
-0.000681
-0.001367
-0.001758
-0.00162
-0.000933
-0.000179
0.000676
0.001204
0.001502
0.001531
0.001144
0.000481
-0.000151
-0.000716
-0.000881
-0.000656
-0.000219
0.00016
0.000236
0.000384
0.000329
0.000275
-0.000279
-0.000992
-0.001703
-0.002227
-0.002674
-0.002862
-0.002773
-0.002276
-0.001633
-0.000971
-0.000439
-0.000277
-0.000316
-0.000689
-0.000987
-0.001433
-0.0017
-0.001984
-0.002156
-0.001899
-0.001339
-0.000687
-0.000271
-9.7e-05
1e-05
-2.9e-05
0.000107
-0.0002
-0.000627
-0.000869
-0.000884
-0.000908
-0.000552
6e-06
0.000555
0.001
0.001203
0.001217
0.000776
1.3e-05
-0.000881
-0.001548
-0.001948
-0.001949
-0.001485
-0.001018
-0.00047
-0.000254
-0.000127
-0.000269
-0.000854
-0.001399
-0.001603
-0.001607
-0.001474
-0.001183
-0.000464
0.000252
0.000644
0.001087
0.001328
0.001357
0.001015
0.000202
-0.000741
-0.001534
-0.002329
-0.002746
-0.002777
-0.002557
-0.002149
-0.001774
-0.001391
-0.0011
-0.001084
-0.001294
-0.001758
-0.002129
-0.002206
-0.002062
-0.001304
-0.000483
0.000524
0.001366
0.001962
0.002371
0.00249
0.002361
0.001855
0.000991
0.000265
-0.000243
-0.00047
-0.000307
6.4e-05
0.000472
0.000667
0.000718
0.000508
6e-05
-0.000459
-0.001053
-0.001452
-0.001677
-0.001758
-0.00162
-0.001081
-0.000455
6.8e-05
0.000637
0.000868
0.00063
0.000167
-0.000578
-0.001337
-0.001911
-0.002228
-0.002153
-0.00183
-0.001155
-0.000536
-3e-06
0.000193
2.9e-05
-0.000546
-0.001321
-0.002013
-0.002429
-0.002644
-0.00256
-0.002008
-0.001377
-0.000629
-6.3e-05
0.000216
0.000384
0.000394
0.000206
-0.000223
-0.000836
-0.001037
-0.001017
-0.00064
0.000203
0.001119
0.002019
0.00275
0.003014
0.002841
0.00223
0.001374
0.000392
-0.000327
-0.000743
-0.000727
-0.000325
0.000295
0.000607
0.000827
0.000502
-0.000408
-0.001336
-0.002278
-0.003055
-0.003576
-0.003739
-0.003478
-0.002788
-0.001694
-0.00058
0.000481
0.001109
0.001203
0.000806
-2.8e-05
-0.000797
-0.001681
-0.002376
-0.002556
-0.002352
-0.00178
-0.000873
-0.000137
0.000477
0.000676
0.000665
0.000286
-0.000611
-0.001501
-0.002144
-0.002274
-0.002063
-0.001296
-0.000524
0.000414
0.00109
0.001665
0.00205
0.002077
0.001739
0.000999
7.1e-05
-0.000493
-0.000748
-0.000718
-0.000607
-0.000308
1.3e-05
0.000374
0.000424
0.000312
-0.000138
-0.000935
-0.001848
-0.00261
-0.003191
-0.003298
-0.00286
-0.002019
-0.001159
-0.000328
0.000205
0.00024
-0.000157
-0.000952
-0.001898
-0.002814
-0.003486
-0.003909
-0.003825
-0.003323
-0.002601
-0.001689
-0.000916
-0.000389
-8.3e-05
-0.000148
-0.000531
-0.00084
-0.000901
-0.000718
-0.000193
0.00067
0.001704
0.002977
0.003763
0.004216
0.004277
0.003775
0.002841
0.001684
0.000459
-0.000585
-0.001409
-0.001649
-0.001308
-0.000749
-0.000106
0.000236
0.000355
6.7e-05
-0.000326
-0.000955
-0.001686
-0.002375
-0.002764
-0.002658
-0.002151
-0.00156
-0.000565
0.000309
0.000767
0.000806
0.000404
-0.000356
-0.00125
-0.002174
-0.002801
-0.003298
-0.003444
-0.003115
-0.00232
-0.001326
-0.000352
0.000264
0.000201
-0.000225
-0.000702
-0.001184
-0.001815
-0.002198
-0.001948
-0.001446
-0.000649
0.000459
0.001289
0.001901
0.002279
0.002496
0.002266
0.001632
0.000713
-2e-06
-0.000301
-0.000232
0.0001
0.000526
0.001019
0.001464
0.001585
0.001566
0.001219
0.000471
-0.000579
-0.001724
-0.002541
-0.002885
-0.002742
-0.002167
-0.001536
-0.00096
-0.000594
-0.000712
-0.001031
-0.001658
-0.002323
-0.002895
-0.003296
-0.003438
-0.00315
-0.002516
-0.001522
-0.000381
0.000666
0.001316
0.001732
0.001484
0.000953
0.000343
-0.000374
-0.000829
-0.000887
-0.000499
0.000268
0.0011
0.001861
0.002478
0.002602
0.002248
0.00178
0.001289
0.000712
0.000212
6.9e-05
5.5e-05
0.000177
0.000417
0.000816
0.000999
0.001051
0.000692
4.2e-05
-0.000845
-0.001609
-0.002413
-0.002692
-0.002755
-0.002583
-0.002201
-0.001698
-0.001273
-0.000936
-0.000843
-0.001072
-0.001353
-0.002011
-0.002739
-0.003165
-0.003324
-0.003339
-0.003079
-0.002561
-0.001942
-0.001206
-0.000493
-5.8e-05
0.000147
-9.6e-05
-0.000403
-0.000633
-0.000807
-0.000801
-0.000352
0.000259
0.000996
0.001697
0.00231
0.002731
0.002649
0.002228
0.001512
0.000737
1.1e-05
-0.000464
-0.000425
7e-06
0.000484
0.001232
0.001728
0.001875
0.001802
0.001429
0.000561
-0.000299
-0.001146
-0.001927
-0.002473
-0.002649
-0.002528
-0.002085
-0.001587
-0.001267
-0.001261
-0.001765
-0.002346
-0.002986
-0.003437
-0.003478
-0.00322
-0.002724
-0.002079
-0.001343
-0.000605
-9.2e-05
0.000274
0.000405
0.000247
0
-0.000398
-0.000682
-0.000696
-0.000279
4.6e-05
0.000421
0.000887
0.001439
0.001588
0.001596
0.00117
0.000522
1e-05
-0.0004
-0.000551
-0.00058
-0.000725
-0.000305
0.000285
0.000983
0.001556
0.001876
0.001867
0.001404
0.000821
0.000133
-0.000592
-0.001086
-0.001326
-0.001279
-0.001111
-0.001051
-0.00083
-0.000752
-0.000895
-0.001366
-0.001978
-0.002566
-0.003124
-0.003486
-0.003405
-0.002886
-0.002172
-0.001434
-0.000986
-0.000616
-0.000472
-0.000726
-0.000997
-0.00108
-0.001375
-0.001409
-0.001136
-0.000597
0.000208
0.001174
0.001868
0.002461
0.002802
0.002833
0.002415
0.001898
0.001185
0.000525
0.000263
0.000295
0.000447
0.000799
0.001042
0.001159
0.001203
0.000949
0.000731
0.000253
-0.000234
-0.000695
-0.001129
-0.001248
-0.001311
-0.001262
-0.001051
-0.000758
-0.000636
-0.000625
-0.000918
-0.00126
-0.001872
-0.00258
-0.002926
-0.003072
-0.003024
-0.002747
-0.002134
-0.001315
-0.000646
-0.000358
-0.00034
-0.000374
-0.000725
-0.001032
-0.00118
-0.001167
-0.000981
-0.000741
-0.000465
-0.000151
0.000108
0.000303
0.000441
0.000402
0.000304
0.000154
0.000139
-3.2e-05
-0.00021
-0.000223
-0.000135
0.000303
0.001049
0.001884
0.002747
0.003309
0.003555
0.003334
0.003012
0.002683
0.002262
0.001803
0.001485
0.001073
0.000973
0.000632
0.000104
-0.000511
-0.001144
-0.002094
-0.002966
-0.003446
-0.003763
-0.004053
-0.004334
-0.004544
-0.004406
-0.003981
-0.003037
-0.001646
7.9e-05
0.002001
0.003639
0.004737
0.005294
0.00499
0.003991
0.002758
0.001945
0.001782
0.002509
0.003752
0.005395
0.007158
0.008428
0.008838
0.008097
0.006044
0.003275
0.000403
-0.002055
-0.003328
-0.003308
-0.002116
-0.000176
0.002529
0.004756
0.005693
0.005266
0.003294
0.000531
-0.002493
-0.004696
-0.005528
-0.00467
-0.002377
0.000808
0.00472
0.008309
0.010983
0.012392
0.012109
0.010461
0.008204
0.006021
0.004444
0.004129
0.005357
0.007648
0.010664
0.013499
0.01552
0.016151
0.014985
0.012371
0.008985
0.00544
0.002694
0.001436
0.00213
0.00458
0.008411
0.012669
0.016295
0.01847
0.01898
0.017467
0.014233
0.010146
0.006263
0.003819
0.003334
0.005118
0.008822
0.013436
0.017745
0.020985
0.022032
0.020445
0.016604
0.011435
0.006091
0.002127
0.000148
0.00083
0.004124
0.009155
0.014802
0.019709
0.022853
0.023461
0.02151
0.017641
0.012993
0.008906
0.006388
0.006342
0.008835
0.013226
0.018649
0.023606
0.026953
0.027836
0.02584
0.021761
0.016672
0.011702
0.008129
0.006711
0.007856
0.010936
0.01515
0.01914
0.021986
0.022835
0.021607
0.018317
0.013897
0.00943
0.005919
0.004485
0.005605
0.008888
0.014068
0.020013
0.025287
0.028532
0.029083
0.027002
0.022841
0.017442
0.012481
0.008867
0.007717
0.009215
0.013195
0.018704
0.024206
0.028431
0.030034
0.028618
0.024546
0.018688
0.012524
0.00732
0.004563
0.004767
0.008251
0.014075
0.020839
0.026861
0.030749
0.03163
0.029259
0.024433
0.0184
0.012755
0.009006
0.007931
0.009753
0.014113
0.019689
0.024954
0.028479
0.029141
0.02658
0.021296
0.01465
0.008318
0.003901
0.00214
0.003679
0.008515
0.015357
0.022708
0.028609
0.031756
0.031598
0.028243
0.022708
0.01654
0.011423
0.008483
0.00889
0.012574
0.018534
0.025767
0.032538
0.037093
0.038393
0.035919
0.030647
0.023814
0.017105
0.011779
0.009201
0.009958
0.013596
0.019337
0.025407
0.030283
0.032891
0.032518
0.029035
0.023704
0.017679
0.012338
0.008877
0.008343
0.010871
0.015757
0.021814
0.027325
0.030911
0.031639
0.029337
0.024771
0.018974
0.013495
0.009576
0.00838
0.01
0.014272
0.019596
0.024823
0.028562
0.030044
0.028815
0.025217
0.020055
0.014913
0.011236
0.010199
0.011605
0.015404
0.020918
0.026694
0.031367
0.033975
0.034068
0.031456
0.027123
0.022407
0.018364
0.01615
0.016168
0.018389
0.022267
0.026719
0.030751
0.033328
0.033621
0.031349
0.027183
0.022316
0.017696
0.014144
0.012363
0.012776
0.015074
0.018497
0.021859
0.024291
0.025161
0.024342
0.021943
0.018383
0.014566
0.011253
0.009498
0.009809
0.012132
0.015648
0.019452
0.023206
0.025943
0.027289
0.026942
0.025273
0.023089
0.020889
0.019698
0.019713
0.020978
0.023309
0.026206
0.028953
0.03097
0.031752
0.031162
0.029116
0.026357
0.023317
0.02072
0.018882
0.018075
0.018722
0.020414
0.022792
0.025105
0.026642
0.027071
0.026363
0.024606
0.022275
0.019993
0.017946
0.016719
0.016415
0.0172
0.018756
0.020436
0.02178
0.022536
0.02212
0.020758
0.01879
0.016328
0.013833
0.012045
0.011032
0.010782
0.011667
0.013292
0.015234
0.017188
0.018827
0.020017
0.020242
0.019787
0.018828
0.018181
0.017996
0.018522
0.020058
0.022349
0.024968
0.02767
0.030054
0.03134
0.031334
0.030208
0.028438
0.026172
0.023834
0.021904
0.020812
0.02061
0.021244
0.022534
0.023821
0.024297
0.023675
0.021988
0.019632
0.016681
0.014074
0.012461
0.012091
0.01301
0.015971
0.017911
0.019555
0.020413
0.02016
0.019065
0.016967
0.014484
0.012879
0.011222
0.010534
0.011065
0.012595
0.014658
0.017444
0.019387
0.020815
0.021613
0.021931
0.020707
0.019264
0.017589
0.016458
0.015805
0.016681
0.018397
0.020693
0.022348
0.022452
0.021356
0.019141
0.016125
0.013042
0.010417
0.008641
0.008182
0.008808
0.01029
0.011805
0.012774
0.012687
0.011074
0.008288
0.004871
0.00151
-0.001056
-0.002606
-0.002547
-0.00112
0.001005
0.003263
0.004682
0.004888

