0.007506
0.00662
0.004815
0.002851
0.00136
0.000275
3.7e-05
0.001037
0.00299
0.005321
0.007649
0.00945
0.010328
0.00981
0.007756
0.004554
0.000859
-0.002605
-0.004873
-0.005688
-0.004874
-0.002754
-0.000177
0.002232
0.003961
0.004596
0.004063
0.002509
0.00048
-0.001498
-0.00246
-0.002242
-0.000726
0.0015
0.003897
0.006094
0.007631
0.007674
0.006061
0.003002
-0.001095
-0.00474
-0.007263
-0.008364
-0.007936
-0.006063
-0.003033
-3.7e-05
0.002346
0.003721
0.003274
0.001462
-0.001611
-0.004595
-0.00656
-0.007247
-0.006096
-0.003633
-4.2e-05
0.003887
0.007259
0.008936
0.0087
0.006358
0.00251
-0.001916
-0.006007
-0.009103
-0.010433
-0.009811
-0.007479
-0.004096
-0.000358
0.002369
0.003722
0.003308
0.001594
-0.00115
-0.004317
-0.006797
-0.008226
-0.00801
-0.006114
-0.002924
0.000679
0.004425
0.006972
0.00803
0.007387
0.005163
0.001976
-0.001202
-0.003659
-0.00469
-0.004188
-0.002167
0.000669
0.003397
0.005547
0.006114
0.004853
0.002189
-0.001385
-0.005015
-0.007848
-0.00931
-0.009053
-0.007248
-0.004118
-0.000509
0.002605
0.004627
0.005063
0.003797
0.001122
-0.00217
-0.005042
-0.006764
-0.006879
-0.005129
-0.001973
0.001977
0.005682
0.008522
0.009487
0.00843
0.005557
0.001268
-0.003596
-0.008049
-0.010833
-0.011516
-0.01002
-0.006824
-0.002525
0.001554
0.004477
0.005621
0.004883
0.002665
-0.000351
-0.002978
-0.00446
-0.004331
-0.002239
0.001002
0.004995
0.008704
0.010925
0.011161
0.009537
0.005996
0.001435
-0.002791
-0.006073
-0.007682
-0.00752
-0.005743
-0.003032
-0.000372
0.001484
0.001982
0.000944
-0.001341
-0.004431
-0.007689
-0.010281
-0.011368
-0.010625
-0.008059
-0.004659
-0.000767
0.002957
0.005522
0.006635
0.00582
0.003648
0.000641
-0.002319
-0.004544
-0.005431
-0.004953
-0.003184
-0.000533
0.00222
0.004279
0.005262
0.004632
0.002701
-0.000131
-0.003141
-0.005516
-0.006706
-0.006525
-0.004922
-0.002255
0.00095
0.003949
0.006335
0.007531
0.007093
0.005533
0.00329
0.000984
-0.000719
-0.001496
-0.001224
-9.9e-05
0.001519
0.003097
0.004274
0.004419
0.003372
0.001495
-0.000858
-0.003409
-0.005765
-0.007235
-0.007586
-0.006676
-0.005004
-0.003084
-0.001228
6e-06
0.000284
-0.000135
-0.001009
-0.00232
-0.003694
-0.004754
-0.005206
-0.00476
-0.003229
-0.001264
0.000469
0.002061
0.003288
0.004042
0.003945
0.003272
0.002074
0.000816
-8e-05
-0.000247
3.1e-05
0.000673
0.001729
0.003061
0.004153
0.004871
0.004876
0.003809
0.002254
0.000293
-0.001912
-0.003635
-0.004484
-0.004573
-0.003596
-0.001834
4e-06
0.001633
0.002867
0.003177
0.002708
0.001483
-0.000513
-0.002824
-0.004692
-0.00595
-0.006347
-0.005933
-0.004873
-0.003566
-0.002478
-0.001755
-0.001756
-0.002266
-0.003223
-0.00431
-0.004914
-0.004963
-0.004434
-0.002966
-0.000649
0.001958
0.00431
0.006103
0.00672
0.006266
0.005077
0.003738
0.002299
0.001312
0.00086
0.001291
0.0026
0.004279
0.005615
0.006617
0.007097
0.006789
0.005617
0.003498
0.00113
-0.001197
-0.002986
-0.003732
-0.003163
-0.001709
0.000146
0.001919
0.00338
0.003749
0.002961
0.001291
-0.001341
-0.004283
-0.006783
-0.008461
-0.00902
-0.008097
-0.006187
-0.003919
-0.001815
-0.000436
7.2e-05
-0.000248
-0.001417
-0.002903
-0.004324
-0.00487
-0.004526
-0.003314
-0.001368
0.001052
0.003543
0.005373
0.006249
0.00604
0.004722
0.002853
0.0007
-0.00099
-0.001897
-0.001808
-0.000501
0.001285
0.003283
0.005019
0.005923
0.005745
0.004576
0.002793
0.000609
-0.001369
-0.002811
-0.003388
-0.0028
-0.001398
0.000447
0.00216
0.003162
0.003291
0.002531
0.000636
-0.001717
-0.004228
-0.006458
-0.007391
-0.007228
-0.006009
-0.004074
-0.001841
-9.3e-05
0.000962
0.001074
0.000102
-0.001746
-0.003645
-0.005233
-0.006031
-0.005796
-0.004594
-0.002521
-0.000201
0.00215
0.003798
0.004727
0.004524
0.003505
0.002124
0.00087
0.000185
0.000206
0.001106
0.002491
0.004175
0.006098
0.007391
0.007857
0.007033
0.00513
0.002754
0.000539
-0.001467
-0.002902
-0.003293
-0.002642
-0.00126
0.000235
0.001238
0.001694
0.001404
0.0002
-0.001894
-0.004175
-0.006031
-0.007104
-0.007342
-0.006741
-0.005216
-0.003152
-0.001059
0.0005
0.001175
0.000942
-0.000139
-0.001851
-0.003807
-0.005341
-0.005933
-0.005393
-0.003955
-0.001837
0.000375
0.002244
0.003361
0.003503
0.002833
0.001426
-0.000526
-0.002382
-0.003407
-0.003001
-0.001559
0.000961
0.003798
0.006429
0.008259
0.008945
0.008537
0.006954
0.004612
0.00239
0.000463
-0.000669
-0.000851
-0.000234
0.001175
0.002729
0.003319
0.003127
0.001812
-0.000467
-0.003255
-0.006024
-0.008051
-0.008999
-0.008704
-0.00738
-0.005272
-0.002898
-0.000876
0.000556
0.000937
0.000161
-0.001297
-0.003043
-0.004539
-0.005494
-0.005476
-0.004318
-0.002119
0.000366
0.002741
0.004494
0.005368
0.005201
0.004158
0.002642
0.001005
-0.000379
-0.000993
-0.000638
0.00098
0.003098
0.005266
0.007068
0.008153
0.007961
0.006571
0.004375
0.001577
-0.001086
-0.002882
-0.003366
-0.002899
-0.001708
-8.5e-05
0.00139
0.002467
0.002784
0.002032
0.00033
-0.001826
-0.003929
-0.005353
-0.005806
-0.005195
-0.003905
-0.002342
-0.000584
0.000428
0.000743
0.000233
-0.001391
-0.003511
-0.005646
-0.007174
-0.007809
-0.007194
-0.005446
-0.003193
-0.000955
0.001073
0.00227
0.002285
0.001314
-4.1e-05
-0.001505
-0.002395
-0.002553
-0.001818
1.2e-05
0.002177
0.004403
0.006366
0.007516
0.007737
0.007005
0.005459
0.003433
0.001155
-0.000622
-0.001674
-0.001605
-0.000771
0.000523
0.002006
0.003057
0.003262
0.002528
0.001307
-0.000612
-0.002767
-0.004649
-0.005782
-0.006184
-0.005832
-0.004773
-0.003427
-0.001809
-0.000735
-0.00021
-0.000465
-0.001105
-0.002052
-0.003102
-0.003643
-0.003387
-0.002373
-0.000782
0.001039
0.002923
0.004272
0.004919
0.004614
0.003497
0.002168
0.000727
-0.000592
-0.001518
-0.001572
-0.000934
0.000181
0.001629
0.003082
0.004102
0.004313
0.003723
0.002591
0.001214
-0.000281
-0.001464
-0.002032
-0.00189
-0.001211
-4.2e-05
0.00132
0.002682
0.003707
0.003902
0.003368
0.002072
0.000439
-0.001308
-0.002727
-0.003647
-0.004242
-0.004207
-0.003406
-0.002491
-0.001679
-0.001261
-0.001186
-0.001795
-0.002396
-0.002979
-0.003578
-0.003795
-0.003357
-0.002277
-0.000736
0.000762
0.001914
0.002803
0.003411
0.003355
0.003052
0.002233
0.001203
0.000148
-0.000464
-0.000234
0.000378
0.001094
0.001834
0.002518
0.002871
0.002748
0.002261
0.001308
0.000175
-0.000761
-0.001426
-0.001748
-0.001366
-0.00045
0.00061
0.001831
0.002866
0.003461
0.003429
0.002807
0.001655
0.000179
-0.001146
-0.00211
-0.002569
-0.002476
-0.00193
-0.000972
-0.000336
-2.4e-05
-7.2e-05
-0.00066
-0.001834
-0.003108
-0.004327
-0.00507
-0.005313
-0.005167
-0.004445
-0.003559
-0.002317
-0.00117
-0.000131
0.000601
0.001009
0.001229
0.00109
0.000818
0.000793
0.000856
0.001051
0.001485
0.002009
0.002367
0.002413
0.002233
0.001902
0.001398
0.000679
-4.9e-05
-0.000723
-0.001158
-0.001595
-0.001628
-0.001065
-0.000445
0.000223
0.000773
0.000842
0.000659
8.8e-05
-0.000523
-0.001194
-0.001698
-0.001968
-0.001913
-0.001485
-0.000691
0.000273
0.001123
0.001483
0.001282
0.000824
-5.9e-05
-0.001139
-0.002046
-0.002673
-0.002725
-0.002456
-0.001832
-0.000943
-0.000147
0.000519
0.001004
0.001114
0.00108
0.000535
-0.000175
-0.00078
-0.001184
-0.001293
-0.00096
-0.000333
0.00042
0.000913
0.001333
0.00148
0.001278
0.000768
-2.3e-05
-0.000618
-0.001105
-0.001371
-0.001028
-0.000575
4.3e-05
0.000884
0.001519
0.001806
0.001576
0.00125
0.000873
0.000297
-0.000452
-0.000902
-0.001076
-0.000857
-0.000239
0.000518
0.001081
0.001331
0.001213
0.000549
-0.000579
-0.001602
-0.002364
-0.002727
-0.002579
-0.002045
-0.00129
-0.000597
7.8e-05
0.000519
0.000563
0.000208
-0.000599
-0.001621
-0.002291
-0.002604
-0.002467
-0.00194
-0.001197
-0.00021
0.000545
0.001122
0.001513
0.001245
0.000744
7.3e-05
-0.000842
-0.001586
-0.00186
-0.00173
-0.001299
-0.00091
-0.000442
0.00028
0.000904
0.001262
0.001208
0.001108
0.000856
0.000539
0.000111
3e-06
0.000412
0.001013
0.001673
0.00228
0.002648
0.002777
0.002467
0.001785
0.000884
9.9e-05
-0.000715
-0.001276
-0.001412
-0.001276
-0.000961
-0.000544
-0.000195
-0.000154
-0.000444
-0.000978
-0.00154
-0.002196
-0.002778
-0.003047
-0.003039
-0.002584
-0.002077
-0.001539
-0.000863
-0.000296
5.2e-05
0.000271
0.000388
0.000212
8.2e-05
-2.8e-05
-4.3e-05
0.000211
0.000706
0.001391
0.002093
0.002469
0.002549
0.002443
0.001984
0.001274
0.000244
-0.000683
-0.001324
-0.001621
-0.001425
-0.001045
-0.000303
0.000713
0.001492
0.001677
0.001758
0.001537
0.001026
0.000477
0.0002
0.000331
0.000561
0.000975
0.001342
0.001629
0.001754
0.001619
0.001182
0.000425
-0.000563
-0.001596
-0.002256
-0.002694
-0.002651
-0.002376
-0.001837
-0.001274
-0.00069
-0.000523
-0.000635
-0.001192
-0.002043
-0.002893
-0.003542
-0.003793
-0.003699
-0.003117
-0.002218
-0.001194
2e-06
0.000814
0.001233
0.001395
0.001253
0.001069
0.000907
0.00091
0.001167
0.001545
0.001974
0.002508
0.002972
0.003317
0.003249
0.002777
0.002141
0.001358
0.000561
-8.5e-05
-0.000527
-0.000884
-0.000852
-0.000566
-0.00017
0.000153
0.000113
-0.000274
-0.000777
-0.00134
-0.001805
-0.002277
-0.002571
-0.002696
-0.002524
-0.002433
-0.002088
-0.001676
-0.001416
-0.001244
-0.001119
-0.001158
-0.001315
-0.001529
-0.001646
-0.001698
-0.001655
-0.001386
-0.000689
-9.6e-05
0.000639
0.001092
0.001251
0.001148
0.000872
0.000511
0.000298
0.000491
0.000755
0.001216
0.001822
0.002284
0.00271
0.003123
0.00329
0.003167
0.002874
0.002412
0.001813
0.001014
0.000484
0.000213
2.5e-05
-1.6e-05
-7.7e-05
-0.000177
-0.000372
-0.000537
-0.00065
-0.000792
-0.001144
-0.001523
-0.001584
-0.001885
-0.002122
-0.002263
-0.002499
-0.002596
-0.002669
-0.002633
-0.002531
-0.002356
-0.002074
-0.001874
-0.001931
-0.001698
-0.001459
-0.001267
-0.000828
-0.000313
0.000202
0.000875
0.001512
0.001989
0.002191
0.002342
0.002303
0.002392
0.002437
0.002213
0.001683
0.001486
0.001383
0.001363
0.001483
0.001488
0.001594
0.001499
0.001168
0.000815
0.000482
5.1e-05
-0.000638
-0.001038
-0.001364
-0.001565
-0.001642
-0.001516
-0.001337
-0.00118
-0.001082
-0.000951
-0.001046
-0.001303
-0.001645
-0.002174
-0.002551
-0.002562
-0.002261
-0.001864
-0.001375
-0.001002
-0.000839
-0.00075
-0.000852
-0.001269
-0.001855
-0.002399
-0.002477
-0.00221
-0.001774
-0.001225
-0.000668
0.000125
0.000689
0.001276
0.001516
0.001486
0.001392
0.001265
0.00115
0.001462
0.001907
0.002541
0.003507
0.004406
0.004905
0.004863
0.004421
0.003716
0.002765
0.001398
0.000132
-0.000847
-0.001492
-0.00178
-0.001598
-0.001371
-0.001183
-0.001154
-0.001252
-0.001494
-0.001813
-0.002311
-0.003003
-0.003508
-0.003711
-0.003638
-0.003226
-0.002548
-0.001803
-0.000988
-0.000383
7e-06
-0.000145
-0.000574
-0.001085
-0.001615
-0.001913
-0.00205
-0.001644
-0.001093
-0.000453
0.000345
0.001121
0.001801
0.002281
0.002175
0.001738
0.00121
0.000827
0.000572
0.000874
0.001403
0.00197
0.002753
0.003268
0.003232
0.003064
0.002627
0.002003
0.001204
0.000371
-1.4e-05
-0.000234
-0.000359
4.8e-05
0.00054
0.000877
0.000603
5e-05
-0.000802
-0.001864
-0.00297
-0.003879
-0.00453
-0.004845
-0.004841
-0.004472
-0.00385
-0.003146
-0.002547
-0.002032
-0.001617
-0.001657
-0.001989
-0.002222
-0.002273
-0.001968
-0.001442
-0.000639
0.000339
0.001266
0.002058
0.002702
0.003008
0.002996
0.002483
0.001773
0.000894
0.000624
0.000542
0.000857
0.001241
0.001495
0.001851
0.002194
0.002025
0.001913
0.001548
0.001064
0.000493
0.000217
0.0002
0.00044
0.000908
0.001183
0.001492
0.001472
0.001033
0.000427
-0.000378
-0.001502
-0.002742
-0.003736
-0.004205
-0.004256
-0.003796
-0.003102
-0.002374
-0.001893
-0.001393
-0.001146
-0.001106
-0.001219
-0.001353
-0.001408
-0.001471
-0.001311
-0.000998
-0.000471
-0
0.000599
0.000862
0.0009
0.000992
0.000963
0.000835
0.000623
0.000606
0.000803
0.001098
0.001383
0.001544
0.001583
0.001783
0.002062
0.002022
0.001871
0.001492
0.00142
0.001381
0.001451
0.00153
0.001372
0.000994
0.000675
0.000178
-0.000305
-0.000759
-0.0011
-0.001361
-0.001527
-0.001807
-0.001924
-0.002025
-0.00175
-0.001552
-0.001317
-0.001021
-0.000899
-0.000965
-0.001196
-0.001561
-0.001754
-0.001792
-0.00169
-0.00166
-0.001608
-0.001522
-0.001093
-0.000609
-0.000301
-2.8e-05
-0.000103
3e-05
0.000309
0.000706
0.001226
0.001496
0.001656
0.001808
0.001985
0.001859
0.001623
0.001408
0.001202
0.000939
0.000748
0.000687
0.000643
0.000635
0.000738
0.000816
0.000823
0.000729
0.000775
0.000823
0.00059
0.000314
-0.0002
-0.00049
-0.000556
-0.000455
-0.000522
-0.000539
-0.000735
-0.00107
-0.001432
-0.001898
-0.00232
-0.002592
-0.002888
-0.002981
-0.002765
-0.002099
-0.001297
-0.000668
-0.000267
3.2e-05
0.00017
0.000113
-3.4e-05
-0.000286
-0.000217
-3.1e-05
0.000439
0.001151
0.001906
0.002449
0.002711
0.002533
0.002014
0.00156
0.000933
0.000168
-0.000388
-0.000774
-0.000959
-0.000935
-0.000689
-0.000746
-0.000715
-0.000645
-0.000676
-0.000847
-0.00077
-0.00093
-0.001029
-0.001082
-0.001075
-0.001194
-0.001261
-0.001176
-0.000967
-0.000428
-6.8e-05
-6e-05
-0.000257
-0.000549
-0.000877
-0.001325
-0.001759
-0.001933
-0.00199
-0.001953
-0.001768
-0.001436
-0.000908
-0.000402
-0.000123
6.2e-05
0.00016
-2e-05
-9e-05
-0.000109
-6.2e-05
0.000125
0.000412
0.000886
0.001362
0.001581
0.001789
0.001763
0.001602
0.00116
0.000676
0.000327
0.000141
0.000259
0.000551
0.00082
0.001003
0.00086
0.000525
3.5e-05
-0.000487
-0.001168
-0.001724
-0.001937
-0.001921
-0.001517
-0.001149
-0.000878
-0.000667
-0.000403
-0.000246
-0.000169
-0.00039
-0.000656
-0.000839
-0.000826
-0.000591
-0.000298
-0.00021
-9.3e-05
-0.00011
1.6e-05
-2e-06
-9.9e-05
-0.000221
-0.000322
-0.000332
-0.000324
-0.000312
-0.000118
0.000176
0.000171
0.000104
0.000187
0.000247
-2.6e-05
-0.000129
-0.00026
-0.00046
-0.000463
-0.000297
2e-06
0.000147
0.000374
0.000684
0.000762
0.000619
0.000407
-2.1e-05
-0.000458
-0.000741
-0.000857
-0.000781
-0.000796
-0.00065
-0.000295
0.00024
0.000631
0.000775
0.000773
0.000603
0.000477
0.000336
0.000276
0.000313
0.000299
0.000385
0.000369
0.000217
0.00014
8.6e-05
-3.3e-05
-9.4e-05
-0.000454
-0.00076
-0.000942
-0.001016
-0.001204
-0.001301
-0.001395
-0.001193
-0.000896
-0.000681
-0.000429
-0.000221
-3.1e-05
-0.000136
-0.000123
1.8e-05
0.000477
0.001007
0.001228
0.001135
0.000909
0.00041
6.8e-05
2.6e-05
-0.000151
-0.00024
-0.000268
-0.000212
-0.000141
-5.9e-05
-0.000295
-0.000592
-0.00077
-0.000899
-0.001042
-0.001102
-0.001053
-0.000813
-0.000451
-0.000133
8.9e-05
0.000105
0.000243
0.000615
0.00113
0.001285
0.001153
0.000841
0.000561
0.000327
0.000248
7.4e-05
-0.000235
-0.00052
-0.000661
-0.001064
-0.001313
-0.001387
-0.001521
-0.001865
-0.001808
-0.001492
-0.001006
-0.000575
-0.000262
-0.00026
-0.000183
-0.000102
-4.8e-05
0.000159
0.00023
0.000413
0.000584
0.000894
0.001201
0.001208
0.001178
0.001018
0.000654
0.000174
-0.000277
-0.000749
-0.001071
-0.001278
-0.001381
-0.001328
-0.001124
-0.000842
-0.000558
-0.000188
0.000154
6.2e-05
-1.2e-05
-5.2e-05
-0.000105
0.000165
0.000645
0.001195
0.001769
0.002202
0.002144
0.001859
0.001484
0.000725
-0.0002
-0.000906
-0.001686
-0.002299
-0.002455
-0.002381
-0.00221
-0.001814
-0.001435
-0.001142
-0.001258
-0.001499
-0.0015
-0.001594
-0.001438
-0.001428
-0.001274
-0.001077
-0.000509
0.000329
0.000948
0.001203
0.001239
0.00093
0.000603
0.00021
0.000122
-0.000124
-6.6e-05
6.3e-05
0.000476
0.001156
0.001685
0.001906
0.0019
0.001701
0.001306
0.000556
-6.9e-05
-0.000543
-0.000873
-0.001014
-0.000901
-0.000532
-8.2e-05
0.000366
0.00092
0.001154
0.00113
0.000895
0.00022
-0.000622
-0.001382
-0.001921
-0.002031
-0.001729
-0.001263
-0.000738
-0.000279
-0.000136
-0.000322
-0.00085
-0.001301
-0.001736
-0.002284
-0.002478
-0.002342
-0.001859
-0.001344
-0.00082
-0.000441
-0.000126
1e-06
1e-06
-0.000175
-0.00063
-0.001008
-0.001149
-0.001077
-0.000762
-0.000358
0.000285
0.00097
0.00171
0.002261
0.002498
0.002489
0.002071
0.001335
0.000615
7.5e-05
-0.000186
-0.000203
1.2e-05
0.000743
0.001368
0.00166
0.001673
0.001044
-3.8e-05
-0.000999
-0.001928
-0.002597
-0.002835
-0.00281
-0.002206
-0.001582
-0.001168
-0.000841
-0.000668
-0.000838
-0.001385
-0.002372
-0.003215
-0.003711
-0.003889
-0.003598
-0.002909
-0.001796
-0.000557
0.000521
0.001367
0.001839
0.001798
0.001372
0.000618
5.7e-05
-0.000288
-0.000258
0.00016
0.000685
0.001308
0.001828
0.002212
0.002324
0.002134
0.001725
0.001083
0.000144
-0.000592
-0.001044
-0.001285
-0.001114
-0.000599
6e-05
0.000698
0.001163
0.001314
0.001298
0.000981
0.00017
-0.000576
-0.001157
-0.001467
-0.001526
-0.001204
-0.000686
-5.7e-05
0.000253
0.000351
4.7e-05
-0.000715
-0.00172
-0.002672
-0.003499
-0.004054
-0.004051
-0.003485
-0.002792
-0.001894
-0.001026
-0.000334
-5e-06
-6e-05
-0.000111
-0.000142
-0.000186
-0.000249
2.2e-05
0.000572
0.001205
0.002193
0.003235
0.003942
0.004421
0.004422
0.003994
0.0032
0.002314
0.001241
0.000113
-0.000575
-0.000795
-0.000733
-0.000166
0.000392
0.000729
0.000677
0.000409
-9.5e-05
-0.000953
-0.001794
-0.002613
-0.00325
-0.003395
-0.003126
-0.00265
-0.002101
-0.001542
-0.001035
-0.000848
-0.000897
-0.001175
-0.001619
-0.001918
-0.002144
-0.001995
-0.001497
-0.000933
-0.00031
0.000124
0.000548
0.00092
0.001139
0.000913
0.000414
-1e-05
-0.000264
-0.00055
-0.000525
-0.000225
0.000206
0.000866
0.001567
0.002274
0.002483
0.002278
0.001872
0.001395
0.000867
0.000434
0.000235
0.000281
0.00078
0.001132
0.001503
0.001744
0.0016
0.001295
0.000651
-0.000101
-0.000851
-0.001397
-0.002027
-0.002467
-0.002395
-0.002278
-0.002008
-0.001748
-0.001653
-0.001714
-0.002045
-0.002293
-0.002694
-0.003066
-0.003383
-0.003471
-0.003403
-0.003037
-0.002227
-0.001376
-0.000572
3.8e-05
0.000469
0.000808
0.000803
0.000628
0.000523
0.000809
0.001369
0.001641
0.001924
0.002411
0.002816
0.002683
0.002432
0.002024
0.001584
0.001319
0.001076
0.000856
0.000491
0.000112
-0.000166
-0.00017
3e-05
1.3e-05
-0.000324
-0.000732
-0.001195
-0.001656
-0.002026
-0.002414
-0.002744
-0.002584
-0.002219
-0.001811
-0.001225
-0.000547
-0.000163
8.3e-05
0.000104
0.000127
-0.000119
-0.00058
-0.001041
-0.001396
-0.001292
-0.001145
-0.000862
-0.000654
-0.000595
-0.00063
-0.000873
-0.001301
-0.001572
-0.001657
-0.001643
-0.001593
-0.001205
-0.0009
-0.000503
-6e-06
0.000424
0.000933
0.001278
0.001438
0.001506
0.001418
0.001499
0.001437
0.001385
0.001545
0.001804
0.002114
0.002246
0.00235
0.002076
0.001512
0.00077
-0.000218
-0.000937
-0.001758
-0.002382
-0.00257
-0.002415
-0.002222
-0.002045
-0.001669
-0.001367
-0.001365
-0.001622
-0.001818
-0.001893
-0.001975
-0.00192
-0.001802
-0.001354
-0.000897
-7.3e-05
0.000739
0.001351
0.001804
0.002022
0.001952
0.001701
0.001214
0.001025
0.000621
0.000222
0.000271
0.00048
0.000923
0.001327
0.001311
0.001239
0.000939
0.000293
-0.000288
-0.000934
-0.001492
-0.001629
-0.001254
-0.000848
-0.000436
-0.000107
0.000253
0.000421
0.000396
1.1e-05
-0.000827
-0.001611
-0.002009
-0.00233
-0.002339
-0.001877
-0.001312
-0.000582
-7e-06
0.000402
0.00057
0.000384
6.1e-05
-0.00043
-0.001116
-0.001796
-0.002006
-0.00184
-0.001482
-0.000958
-0.000706
-0.00048
-0.000486
-0.000483
-0.000829
-0.001159
-0.001645
-0.001938
-0.002102
-0.001678
-0.00091
0.000108
0.001168
0.001994
0.002407
0.002506
0.002525
0.002218
0.001685
0.001115
0.000476
0.000193
2.9e-05
0.000358
0.000932
0.001395
0.001462
0.001131
0.000394
-0.000447
-0.001201
-0.001905
-0.002405
-0.002494
-0.002103
-0.001576
-0.000833
-3.9e-05
0.000507
0.000639
0.000411
-0.000196
-0.000832
-0.001538
-0.002138
-0.002445
-0.002366
-0.002214
-0.001608
-0.000808
-1.8e-05
0.000784
0.001208
0.00137
0.001093
0.000591
-3.3e-05
-0.000382
-0.000264
-8.2e-05
0.000196
0.000553
0.001168
0.001809
0.002065
0.002039
0.00182
0.001165
0.000653
0.000161
-0.000175
-0.000121
0.000224
0.000612
0.001176
0.001502
0.001538
0.001234
0.000805
0.000145
-0.000582
-0.00125
-0.001687
-0.002249
-0.002584
-0.002372
-0.001786
-0.001137
-0.000622
-0.00038
-0.000357
-0.000694
-0.001083
-0.001398
-0.001728
-0.001973
-0.001975
-0.001662
-0.001164
-0.000652
0.000155
0.000677
0.000797
0.000669
0.00016
-0.000527
-0.001084
-0.001291
-0.001341
-0.001155
-0.000924
-0.000351
0.000271
0.000851
0.001112
0.001119
0.000955
0.000634
0.0002
-0.000341
-0.000735
-0.000867
-0.000713
-0.000338
0.000256
0.000754
0.001054
0.001289
0.001013
0.000552
-8.4e-05
-0.000629
-0.001166
-0.001461
-0.001468
-0.001083
-0.000594
-0.000148
0.000268
0.000248
-0.000128
-0.000574
-0.001311
-0.001983
-0.002617
-0.002968
-0.002842
-0.002397
-0.001769
-0.001028
-0.000325
0.000313
0.000731
0.000665
0.000354
-0.000206
-0.000846
-0.001364
-0.001487
-0.00119
-0.000628
-3.4e-05
0.000643
0.001268
0.001626
0.001849
0.001618
0.000953
0.000237
-0.000202
-0.000543
-0.000891
-0.001065
-0.000994
-0.00089
-0.000783
-0.000769
-0.000731
-0.000786
-0.00097
-0.001269
-0.001628
-0.001946
-0.001988
-0.002006
-0.001668
-0.001039
-0.000339
0.000344
0.000737
0.000763
0.000663
0.000289
-0.000244
-0.000871
-0.001048
-0.000937
-0.000621
-0.000131
0.000379
0.000858
0.001271
0.001731
0.002034
0.001895
0.001528
0.001056
0.000593
0.000113
-0.00024
-0.000416
-0.000559
-0.000602
-0.000717
-0.000737
-0.000688
-0.000578
-0.000807
-0.001057
-0.001286
-0.001514
-0.001582
-0.00147
-0.001114
-0.000331
0.000589
0.00131
0.001722
0.001739
0.001522
0.001503
0.001367
0.001156
0.000877
0.000644
0.000589
0.000383
0.000421
0.000277
0.000106
-6.6e-05
-0.000453
-0.000851
-0.0012
-0.001485
-0.001647
-0.001777
-0.001805
-0.001567
-0.001153
-0.000544
5.2e-05
0.000532
0.000768
0.000635
0.000415
0.000238
5.4e-05
-0.000102
-5.4e-05
-5.2e-05
-5.6e-05
-0.00017
-0.00024
-0.000223
-0.000375
-0.000502
-0.000626
-0.000766
-0.000736
-0.000852
-0.00103
-0.001238
-0.001355
-0.001474
-0.001369
-0.001291
-0.001208
-0.001073
-0.000874
-0.00066
-0.000684
-0.000666
-0.000522
-0.000206
8.6e-05
0.000213
0.000509
0.000649
0.000825
0.001039
0.001314
0.00148
0.001557
0.001437
0.001282
0.000988
0.000931
0.000819
0.000635
0.000395
8.9e-05
-0.000461
-0.000929
-0.00122
-0.001379
-0.001536
-0.001497
-0.001337
-0.00114
-0.000859
-0.000617
-0.000406
-0.000254
-0.000274
-0.000518
-0.000613
-0.000621
-0.000516
-0.000437
-0.000282
1e-06
0.000126
0.000112
1e-05
-9.3e-05
-0.000116
-6e-05
8.2e-05
0.000199
0.000119
0.000182
0.000347
0.000432
0.000432
0.000337
0.000433
0.000554
0.000624
0.000393
0.000103
-0.000225
-0.000683
-0.000763
-0.000769
-0.000719
-0.000432
-7.7e-05
0.000211
0.000432
0.000471
0.000798
0.000702
0.000555
0.000281
0.000132
-4.5e-05
-0.000207
-0.000149
-7.1e-05
-0.000106
-0.00017
-0.000242
-0.000446
-0.000684
-0.001056
-0.001382
-0.001621
-0.002024
-0.00216
-0.00193
-0.001765
-0.001358
-0.001157
-0.000934
-0.000578
-0.000323
7e-06
0.000198
0.000237
0.000311
0.000343
0.000507
0.000875
0.001008
0.001214
0.001239
0.001293
0.00132
0.001191
0.000816
0.000187
-0.000264
-0.000575
-0.000879
-0.001139
-0.001438
-0.001796
-0.001736
-0.001463
-0.001066
-0.000748
-0.000731
-0.000716
-0.000872
-0.001
-0.001017
-0.001169
-0.001227
-0.001014
-0.00065
-0.000153
0.000299
0.000584
0.000504
0.000211
-9.5e-05
-0.000496
-0.000921
-0.001048
-0.001221
-0.001213
-0.001075
-0.000941
-0.000907
-0.000778
-0.000716
-0.000572
-0.000703
-0.000568
-0.000459
-0.000587
-0.000692
-0.000508
-0.000328
7.8e-05
0.000298
0.000433
0.00054
0.000422
0.000155
-0.000102
-0.000252
-0.0003
-0.000412
-0.000315
2.2e-05
0.000456
0.000725
0.000906
0.001043
0.000854
0.000512
0.000193
-0.000377
-0.000847
-0.001282
-0.001648
-0.001753
-0.001675
-0.001546
-0.001311
-0.000882
-0.000421
-0.000113
3.4e-05
-0.000142
-0.000542
-0.00095
-0.001272
-0.001548
-0.001647
-0.001542
-0.001141
-0.000695
-0.000272
6.5e-05
0.000185
0.000206
-5.1e-05
-0.000398
-0.000457
-0.000491
-0.000482
-0.000282
0.000176
0.000812
0.001224
0.001507
0.00169
0.001573
0.001373
0.001083
0.000791
0.000421
0.000252
0.000278
0.000365
0.000474
0.000801
0.001059
0.001201
0.001048
0.000671
0.000275
-0.000378
-0.00105
-0.001424
-0.001469
-0.001392
-0.001373
-0.001253
-0.001126
-0.000978
-0.00096
-0.000946
-0.001216
-0.001491
-0.001724
-0.001403
-0.000962
-0.000351
0.000121
0.000328
0.000265
0.000141
-9.6e-05
-0.000151
-0.000199
-0.000341
-0.000555
-0.000664
-0.000706
-0.000566
-0.0006
-0.000505
-0.0003
-0.000181
-0.000128
-0.000154
-0.000229
-0.000199
-0.000204
-0.000232
-0.000438
-0.000526
-0.000474
-0.00035
0.0001
0.000341
0.00054
0.000427
0.00014
-0.000179
-0.000557
-0.00082
-0.000809
-0.000714
-0.000724
-0.000683
-0.000625
-0.000545
-0.000739
-0.000936
-0.001254
-0.001768
-0.00216
-0.002432
-0.002433
-0.002108
-0.001644
-0.001022
-0.000452
8e-05
0.000555
0.000804
0.000792
0.000682
0.000619
0.000452
0.000266
0.00031
0.000225
0.000239
0.000158
0.000115
0.000191
0.000104
-5.8e-05
-0.000105
-0.000124
-0.000158
-7.2e-05
0.000276
0.000424
0.000336
0.00026
0.000339
0.000387
0.000316
0.000113
-0.000122
-0.000379
-0.000405
-0.000356
-0.000345
-0.000409
-0.000556
-0.000529
-0.000556
-0.000575
-0.000904
-0.000995
-0.00086
-0.00096
-0.001266
-0.001613
-0.001943
-0.002057
-0.001828
-0.001461
-0.000802
-0.000373
3.5e-05
0.000461
0.000655
0.000555
0.000243
9.6e-05
4e-06
-5.9e-05
-3.3e-05
8e-06
4.7e-05
0.000336
0.000599
0.000652
0.000578
0.000288
0.00013
-5.9e-05
-0.000158
-0.00028
-0.000215
0.000147
0.000259
0.000422
0.000612
0.000748
0.000827
0.000872
0.000673
0.000393
0.000405
0.000528
0.000679
0.000777
0.00071
0.000401
9.9e-05
-0.000107
-0.000521
-0.000804
-0.001003
-0.001227
-0.001475
-0.001577
-0.001657
-0.001401
-0.001063
-0.00091
-0.000899
-0.001009
-0.001138
-0.001196
-0.001157
-0.001125
-0.001147
-0.001215
-0.000903
-0.00036
0.0001
0.000353
0.000498
0.00057
0.000479
0.000283
7.7e-05
0.000171
0.000276
0.000247
6.9e-05
-7.7e-05
1.6e-05
0.000217
0.000638
0.000922
0.000944
0.000935
0.000862
0.000632
0.000395
0.000169
-0.000103
-0.000266
-0.000409
-0.000541
-0.000646
-0.000819
-0.001119
-0.001359
-0.001754
-0.001766
-0.001661
-0.001733
-0.001677
-0.001483
-0.001307
-0.00102
-0.000617
-0.000268
-2.7e-05
0.000159
0.000189
0.000112
9e-06
-0.000268
-0.000378
-0.000392
-0.000366
-0.00024
-4.9e-05
0.000121
0.000329
0.000372
0.000357
0.000331
0.000194
-1.3e-05
-0.00024
-0.000675
-0.000896
-0.000942
-0.001063
-0.001008
-0.000667
-0.000356
1.3e-05
0.000233
0.000382
0.00061
0.000653
0.00046
0.000489
0.000567
0.000746
0.000753
0.000664
0.000537
0.000422
0.0003
0.000217
0.000169
0.000168
-6.9e-05
-0.000331
-0.00077
-0.001173
-0.001509
-0.001496
-0.00142
-0.001419
-0.00123
-0.00108
-0.000873
-0.000609
-0.000493
-0.000391
-0.000403
-0.000513
-0.000739
-0.000881
-0.000895
-0.000655
-0.000347
6.8e-05
0.000434
0.000738
0.000774
0.000631
0.00069
0.000502
0.000412
0.000116
-0.000157
-0.000219
-0.000239
-0.000378
-0.000342
-0.000251
-0.000184
-6e-05
0.00013
0.000161
0.000137
-9.7e-05
-0.000521
-0.000898
-0.001057
-0.001097
-0.000982
-0.00094
-0.000902
-0.000943
-0.000679
-0.000481
-0.000371
-0.000461
-0.000631
-0.000724
-0.000695
-0.000522
-0.000257
6.4e-05
0.000587
0.000643
0.000478
0.000269
-3.9e-05
-0.000418
-0.00074
-0.00097
-0.000956
-0.000906
-0.000497
-5.9e-05
0.000419
0.000634
0.000501
9.2e-05
-0.00038
-0.000708
-0.000818
-0.000834
-0.000541
-2.2e-05
0.000625
0.001342
0.001736
0.002075
0.002179
0.002025
0.001585
0.000963
0.00019
-0.000446
-0.000684
-0.000666
-0.000447
4.6e-05
0.000684
0.001256
0.001519
0.001356
0.000942
9.9e-05
-0.001
-0.002025
-0.002723
-0.003009
-0.002733
-0.002051
-0.001226
-0.000848
-0.000526
-0.000163
-9.1e-05
-0.000272
-0.000565
-0.000988
-0.001214
-0.001358
-0.001235
-0.000794
-0.000155
0.000325
0.000584
0.000632
0.000775
0.00091
0.000792
0.000492
0.000354
0.000207
8.5e-05
0.000296
0.000557
0.000767
0.000776
0.00062
0.000338
-3.5e-05
-0.000682
-0.001344
-0.001979
-0.002258
-0.002375
-0.002116
-0.001559
-0.000994
-0.000544
-9.3e-05
0.000254
0.00065
0.000846
0.000856
0.000894
0.001122
0.001118
0.001004
0.000958
0.001005
0.000705
0.000199
-0.000288
-0.000791
-0.001463
-0.00184
-0.002109
-0.002268
-0.002313
-0.00245
-0.002551
-0.002214
-0.001905
-0.001648
-0.001294
-0.000989
-0.000555
-0.000266
5.8e-05
0.000365
0.00061
0.000791
0.00104
0.001205
0.001373
0.001633
0.001805
0.00185
0.00184
0.001622
0.000857
0.000116
-0.000593
-0.000988
-0.001345
-0.001404
-0.000949
-0.000665
-0.00045
-0.000157
4.4e-05
2.8e-05
7e-05
3.2e-05
-0.000201
-0.000464
-0.000611
-0.000462
-0.000178
8e-05
0.000574
0.000897
0.00091
0.000766
0.000493
0.000134
-0.000157
-0.000345
-0.000661
-0.000806
-0.000825
-0.000739
-0.000644
-0.000734
-0.000725
-0.000745
-0.000933
-0.001136
-0.001418
-0.001687
-0.001782
-0.001912
-0.001546
-0.001078
-0.00055
-0.00022
7e-05
0.000213
0.000153
7.5e-05
-2.5e-05
1e-05
-2.5e-05
-7.2e-05
4.6e-05
0.000114
0.000352
0.000495
0.000543
0.000792
0.000922
0.000913
0.000858
0.000669
0.000564
0.000423
0.000358
0.000317
6.9e-05
2e-06
-2.4e-05
-0.00018
-0.000293
-0.000326
-0.000321
-0.000226
-0.000178
-0.000276
-0.000468
-0.000591
-0.000672
-0.000903
-0.001059
-0.00107
-0.000997
-0.000826
-0.000718
-0.000535
-0.000368
-0.00041
-0.000368
-0.000308
-0.000326
-0.000359
-0.000267
-0.000248
-1.2e-05
-7e-05
-0.000177
-0.000272
-0.000285
-0.00031
-0.000377
-0.000451
-0.000576
-0.000671
-0.000687
-0.000688
-0.00059
-0.000504
-0.000338
-0.000186
2.6e-05
0.000329
0.000637
0.000752
0.000756
0.000765
0.000761
0.000549
0.000352
-1.9e-05
-0.000427
-0.000668
-0.000891
-0.000985
-0.000934
-0.000922
-0.000854
-0.000764
-0.000685
-0.000618
-0.000527
-0.000657
-0.000906
-0.001217
-0.001419
-0.001519
-0.001478
-0.001368
-0.001111
-0.000755
-0.000545
-0.000286
-5.5e-05
8.8e-05
0.000259
0.000267
0.000377
0.000489
0.000676
0.000893
0.001053
0.001023
0.000796
0.000376
2.8e-05
-0.000179
-0.000391
-0.000378
-0.000234
6e-05
0.000275
0.000526
0.000775
0.000675
0.000535
4.5e-05
-0.000563
-0.00097
-0.001019
-0.000986
-0.000864
-0.000644
-0.000234
-3.2e-05
-9.4e-05
-0.000238
-0.000487
-0.000759
-0.001024
-0.000964
-0.000899
-0.000808
-0.000506
-0.000268
-6.6e-05
-0.000134
-0.000308
-0.000636
-0.001058
-0.001462
-0.001752
-0.001701
-0.001462
-0.001221
-0.000929
-0.000668
-0.000288
0.000216
0.000511
0.000701
0.000612
0.000575
0.000741
0.000714
0.000644
0.000667
0.000675
0.000698
0.000686
0.000646
0.000513
0.000106
-0.000404
-0.000971
-0.001307
-0.001233
-0.001092
-0.000858
-0.00045
-0.000122
0.000351
0.000627
0.000849
0.000908
0.000895
0.000782
0.000552
0.00012
-0.000131
-0.000564
-0.000762
-0.00082
-0.000932
-0.000838
-0.000763
-0.00074
-0.000708
-0.000732
-0.000712
-0.000746
-0.00097
-0.001066
-0.000906
-0.00067
-0.000355
4.9e-05
0.00038
0.000207
-4.1e-05
-0.000218
-0.000445
-0.000615
-0.000864
-0.000843
-0.000883
-0.000957
-0.000607
-6.8e-05
0.000531
0.000972
0.001346
0.001459
0.001489
0.001299
0.001035
0.000608
0.00017
-6.8e-05
-0.000172
-0.000145
-4.1e-05
5.6e-05
7.9e-05
-0.000186
-0.000687
-0.000988
-0.001226
-0.001473
-0.001644
-0.001532
-0.001406
-0.001239
-0.000903
-0.000528
-0.000139
-0.000104
-0.000141
-0.000132
-0.000393
-0.000785
-0.001057
-0.001301
-0.00126
-0.001177
-0.000987
-0.000701
-0.000455
-0.000183
9.2e-05
0.000106
5.8e-05
-2.3e-05
-0.000146
-0.000244
-0.000356
-0.00011
0.000115
0.000465
0.001017
0.001376
0.001515
0.001524
0.0012
0.000721
0.00013
-0.000375
-0.000672
-0.000932
-0.000768
-0.000394
-3e-06
0.000199
0.000312
0.000329
0.000211
-3e-05
-9.1e-05
-0.000239
-0.00025
-0.000225
-0.000147
-0.000124
-0.000263
-0.000375
-0.000491
-0.000889
-0.001175
-0.001532
-0.002052
-0.00232
-0.002498
-0.002676
-0.002334
-0.001861
-0.001402
-0.000706
4e-05
0.000366
0.000465
0.000216
0.000247
0.000105
3.7e-05
-7.1e-05
-6e-05
7.5e-05
0.000257
0.000435
0.000483
0.000345
0.000167
-0.000101
-0.00032
-0.000455
-0.000496
-0.000615
-0.000738
-0.00065
-0.000608
-0.000432
-0.000178
4.5e-05
3e-05
-8.3e-05
-0.00029
-0.00053
-0.0007
-0.000854
-0.000922
-0.000867
-0.000885
-0.000976
-0.001034
-0.00096
-0.000819
-0.000802
-0.000587
-0.000435
-0.000221
-7e-05
8.9e-05
0.000307
0.000557
0.000644
0.000765
0.000809
0.000537
0.000232
-0.00012
-0.000469
-0.000587
-0.000545
-0.000304
2.9e-05
0.000259
0.000487
0.000597
0.000516
0.000548
0.00048
0.00044
0.000511
0.000483
0.00045
0.000371
0.000424
0.000465
0.000326
0.000458
0.000475
0.000317
0.000207
-0.000115
-0.000318
-0.000559
-0.000593
-0.00042
-0.000312
-0.000136
7e-06
1.5e-05
3.4e-05
4.5e-05
2.8e-05
-0.000201
-0.000476
-0.000615
-0.000593
-0.000764
-0.001087
-0.001594
-0.001964
-0.002158
-0.002269
-0.002259
-0.001929
-0.001758
-0.00123
-0.000716
-0.000155
0.00017
0.000438
0.000801
0.000904
0.000916
0.000949
0.001024
0.000995
0.001137
0.001355
0.001469
0.001391
0.001236
0.001141
0.001145
0.001007
0.000757
0.000311
-0.000129
-0.000429
-0.000735
-0.000929
-0.001151
-0.001384
-0.001719
-0.001979
-0.001897
-0.00145
-0.001131
-0.00089
-0.000629
-0.000295
5.5e-05
0.000186
7.8e-05
-0.000138
-0.000341
-0.000637
-0.000803
-0.00067
-0.000378
-0.000206
5e-05
-0.000102
-0.00037
-0.000676
-0.000956
-0.001158
-0.001136
-0.001135
-0.000973
-0.0006
-0.00039
-0.000135
8e-05
0.000263
0.000228
0.000169
0.000392
0.000543
0.000683
0.000608
0.000429
8.3e-05
-0.00027
-0.000368
-0.000348
-0.000213
2.5e-05
7.1e-05
0.00011
0.000198
0.000171
0.000183
6.2e-05
-0.000287
-0.000457
-0.000585
-0.000632
-0.000668
-0.000586
-0.000442
-0.000344
-0.000287
-0.0003
-0.000459
-0.000841
-0.001232
-0.001469
-0.001671
-0.001724
-0.001675
-0.001482
-0.001203
-0.000952
-0.000686
-0.000394
-0.000186
-0.000241
-0.000244
-0.000162
-1e-05
0.000195
0.000157
0.000192
0.000352
0.000514
0.000638
0.00089
0.000864
0.001038
0.001164
0.00127
0.001126
0.000846
0.000468
4.4e-05
-0.00041
-0.00071
-0.000763
-0.000812
-0.000733
-0.000415
-0.000267
-2.1e-05
8.5e-05
7.7e-05
-5.4e-05
-0.000151
-0.000408
-0.000565
-0.000654
-0.000647
-0.000514
-0.000236
0.000136
0.0004
0.000668
0.000499
0.000139
-0.000307
-0.000905
-0.00133
-0.001685
-0.001642
-0.001416
-0.001066
-0.000714
-0.000437
-0.000298
-0.000486
-0.000687
-0.000878
-0.001069
-0.001143
-0.000795
-0.000445
-9e-05
0.000241
0.000401
0.000641
0.000805
0.000623
0.000331
0.000163
-2e-06
-9.2e-05
-4.9e-05
0.000211
0.000585
0.000669
0.000816
0.000838
0.000849
0.000682
0.000263
-0.000369
-0.000891
-0.001167
-0.001299
-0.001161
-0.000803
-0.000315
-3.3e-05
0.000165
0.000374
0.000358
3.4e-05
-0.000341
-0.000761
-0.001102
-0.001172
-0.001058
-0.000819
-0.000469
-0.000125
0.000322
0.000562
0.000673
0.000605
0.000349
0.000121
-7.5e-05
-0.000308
-0.000565
-0.000715
-0.000492
-7e-06
0.000511
0.000987
0.00112
0.000901
0.000445
-0.000156
-0.000757
-0.00121
-0.001546
-0.001685
-0.001501
-0.001163
-0.000715
-7.9e-05
0.000245
0.000464
0.000325
8.5e-05
-0.000436
-0.000964
-0.001386
-0.001633
-0.001677
-0.001315
-0.00061
0.000139
0.000703
0.001215
0.001438
0.00126
0.000988
0.000776
0.000451
0.000112
-0.000439
-0.000727
-0.000769
-0.000532
-0.00033
-3.9e-05
0.000282
0.000293
-7.8e-05
-0.000362
-0.000547
-0.000903
-0.001204
-0.001227
-0.000881
-0.000372
7.5e-05
0.000495
0.000701
0.000634
0.000553
0.00018
-0.000159
-0.00047
-0.000655
-0.000687
-0.000313
0.000119
0.000556
0.001006
0.001461
0.001733
0.001645
0.00122
0.000603
-0.000145
-0.00084
-0.001418
-0.001592
-0.001443
-0.001131
-0.000732
-0.000274
-3.2e-05
7.2e-05
-2.2e-05
-0.000502
-0.001044
-0.001452
-0.001561
-0.001517
-0.001051
-0.000449
4.7e-05
0.00066
0.001142
0.001288
0.001365
0.001319
0.000991
0.000497
3.6e-05
-0.000171
-0.000315
3.2e-05
0.000582
0.001156
0.001591
0.001481
0.000999
0.000216
-0.000569
-0.001121
-0.00177
-0.002151
-0.002206
-0.002036
-0.001656
-0.001187
-0.000475
5.2e-05
0.00051
0.000668
0.000526
0.00036
0.000199
-3.9e-05
-0.000162
-0.000264
-0.000255
0.000229
0.000771
0.001216
0.001293
0.001084
0.000504
-0.00021
-0.000945
-0.001613
-0.001976
-0.001954
-0.001808
-0.001517
-0.000878
-0.000149
0.000485
0.001034
0.001347
0.001131
0.000539
-0.000279
-0.001013
-0.001588
-0.002002
-0.001953
-0.001499
-0.000934
-0.000474
-6.6e-05
0.000232
0.000346
0.000256
0.000107
8.6e-05
2.8e-05
-9.2e-05
4.1e-05
0.000447
0.000831
0.001256
0.001454
0.001326
0.001041
0.000427
-0.00032
-0.001157
-0.001823
-0.002284
-0.00232
-0.001919
-0.001423
-0.0008
-0.000208
0.00027
0.000285
-1.5e-05
-0.000325
-0.000687
-0.00096
-0.001058
-0.000909
-0.000777
-0.000715
-0.000233
0.000136
0.000421
0.000619
0.000666
0.000609
0.000413
6e-05
-0.000208
-0.000366
-0.000289
-0.000226
-0.000136
-1.1e-05
0.000295
0.000431
0.000499
0.000412
0.000308
8e-05
-0.000184
-0.000532
-0.001024
-0.001354
-0.001564
-0.001692
-0.001407
-0.000967
-0.000495
-0.00014
0.000188
0.000244
4.5e-05
-0.000285
-0.000679
-0.000881
-0.000802
-0.000497
-7.4e-05
0.000431
0.000883
0.00104
0.001118
0.001026
0.00061
-1.9e-05
-0.000635
-0.00085
-0.00099
-0.001029
-0.000754
-0.000278
0.000178
0.000338
0.000353
0.000286
0.000109
-6.6e-05
-0.000401
-0.000737
-0.000998
-0.001152
-0.001043
-0.000759
-0.000569
-0.000378
-0.000198
-3.1e-05
-1.8e-05
-0.000157
-0.000197
-0.000237
-0.000346
-0.000485
-0.00065
-0.000653
-0.00047
-0.000225
5e-05
0.000153
0.000283
0.000187
-0.000128
-0.000423
-0.000699
-0.000908
-0.000909
-0.000746
-0.000561
-0.000153
0.000253
0.00056
0.000859
0.000672
0.000219
-0.000177
-0.000532
-0.000755
-0.000797
-0.000558
-6.4e-05
0.000592
0.00132
0.001858
0.002127
0.002227
0.00225
0.002025
0.001363
0.000439
-0.000312
-0.000916
-0.001306
-0.001489
-0.001623
-0.001401
-0.00104
-0.000931
-0.000907
-0.001121
-0.001406
-0.001703
-0.001832
-0.001724
-0.001672
-0.001251
-0.000844
-0.000313
0.000192
0.000401
0.000558
0.000462
0.000216
-3.5e-05
-0.000298
-0.00044
-0.000474
-0.000206
0.000175
0.000577
0.000855
0.000931
0.000948
0.000924
0.000578
-1.6e-05
-0.000455
-0.001015
-0.001484
-0.001426
-0.001283
-0.001214
-0.000879
-0.000477
-0.000165
6e-06
-6e-06
-0.000127
-0.000435
-0.000704
-0.000864
-0.00079
-0.000788
-0.000754
-0.000474
6.5e-05
0.00067
0.001155
0.001268
0.001086
0.000603
-5.7e-05
-0.00071
-0.001092
-0.001275
-0.0013
-0.001232
-0.001013
-0.000831
-0.00077
-0.000837
-0.001061
-0.001288
-0.001435
-0.001557
-0.001722
-0.00169
-0.001437
-0.001039
-0.000596
-9.2e-05
0.00029
0.00079
0.001114
0.00138
0.001263
0.000856
0.000359
-0.000145
-0.000355
-0.000355
-0.000205
0.000112
0.000492
0.000728
0.00093
0.000702
0.000268
-0.000208
-0.000709
-0.001034
-0.001301
-0.00138
-0.001302
-0.000966
-0.000715
-0.000363
0.000127
0.000453
0.000577
0.000586
0.000442
0.000276
4.3e-05
-0.000241
-0.000364
-0.000194
0.000224
0.000628
0.000925
0.001104
0.001114
0.000903
0.000556
0.000179
-5.1e-05
-0.000241
-0.000383
-0.000441
-0.000462
-0.000389
-0.000465
-0.000423
-0.000391
-0.000411
-0.000311
-0.000412
-0.000342
-0.00014
3e-05
0.000415
0.000652
0.000747
0.000795
0.00086
0.000809
0.000712
0.000636
0.000198
-8.8e-05
-0.000366
-0.000545
-0.000875
-0.00093
-0.000947
-0.000825
-0.000399
-0.000251
-0.000276
-0.000406
-0.000506
-0.000489
-0.000551
-0.000353
-0.000336
-0.000333
-0.000193
0.000183
0.000505
0.000478
0.000203
2.9e-05
2.6e-05
7.6e-05
0.000312
0.000218
0.00023
0.000349
0.000449
0.000521
0.000573
0.000794
0.00075
0.000737
0.000749
0.000741
0.000505
0.000304
6.2e-05
-0.000257
-0.000449
-0.000509
-0.000525
-0.000763
-0.000644
-0.000582
-0.000341
-0.000275
-0.000103
-9.1e-05
0.000113
0.0003
0.000235
0.000368
0.000432
0.00052
0.000371
0.000248
0.000275
0.000253
0.000278
7.5e-05
-0.000135
-0.000259
-0.000268
-0.000408
-0.000663
-0.000768
-0.000945
-0.001075
-0.00131
-0.001452
-0.00152
-0.001477
-0.001458
-0.00114
-0.000684
-0.000326
7e-05
0.000488
0.000751
0.000897
0.00089
0.000932
0.00086
0.000719
0.000478
0.00026
1.7e-05
-0.000145
-0.00024
-0.000261
-0.000219
-0.000185
-8.4e-05
9.1e-05
2.9e-05
-2.2e-05
-4.3e-05
5.4e-05
0.000126
0.00036
0.00055
0.000651
0.000649
0.000328
-0.000236
-0.000762
-0.00114
-0.001248
-0.001207
-0.001119
-0.001103
-0.001147
-0.001003
-0.000733
-0.000541
-0.000414
-0.00034
-0.000199
1.5e-05
0.000259
0.000345
0.000439
0.000656
0.000632
0.000703
0.00067
0.000478
0.00026
3.3e-05
-0.000281
-0.000582
-0.000715
-0.000795
-0.000737
-0.000692
-0.000571
-0.000307
-0.000193
-0.000214
-0.000421
-0.000263
0.00011
0.000505
0.000668
0.000535
0.000438
0.000491
0.000497
0.000428
0.000127
-0.00016
-0.000309
-0.00026
-0.000132
7.4e-05
9.9e-05
-8.8e-05
-0.000473
-0.000728
-0.000971
-0.001028
-0.001017
-0.001111
-0.000905
-0.000618
-0.000298
-0.000131
-8e-06
0.000118
1.1e-05
-0.000163
-0.000492
-0.000793
-0.001067
-0.000968
-0.000886
-0.000713
-0.000389
-3.5e-05
0.000378
0.000594
0.000702
0.000703
0.000501
0.000111
-0.000168
-0.000288
-0.000217
-0.000184
0.00011
0.000307
0.000225
0.000141
6.7e-05
-5.8e-05
-0.000362
-0.00058
-0.000885
-0.001185
-0.001063
-0.000987
-0.000678
-0.000493
-0.000124
0.000274
0.000508
0.000708
0.000927
0.000885
0.000621
0.000374
2.2e-05
-0.000395
-0.000704
-0.000764
-0.0006
-6.2e-05
0.000367
0.000678
0.000538
0.000288
-0.000159
-0.000452
-0.000787
-0.000932
-0.000997
-0.000785
-0.000738
-0.000569
-0.000207
9.6e-05
0.000194
6e-06
0.000202
0.000552
0.000901
0.00101
0.00088
0.000785
0.000598
0.000412
0.000417
0.000546
0.000721
0.000667
0.000586
0.000372
1.7e-05
-0.00017
-0.000466
-0.000759
-0.000846
-0.00087
-0.000775
-0.000691
-0.000607
-0.000426
-0.000295
-0.000305
-0.000452
-0.000588
-0.000636
-0.000741
-0.000834
-0.000821
-0.000723
-0.000517
-0.000305
0.000112
0.000478
0.000654
0.000495
0.000323
0.00017
4.2e-05
-0.000234
-0.000317
-0.000398
-0.000261
-1.3e-05
0.000106
0.000197
0.000288
0.000395
0.000454
0.000357
0.000125
-0.000278
-0.000562
-0.000756
-0.000657
-0.000353
-0.000111
-9.2e-05
-6.7e-05
8.5e-05
-2.9e-05
-0.000337
-0.000499
-0.000587
-0.000478
-0.000462
-0.000303
-0.000121
-0.000133
2.7e-05
0.000153
0.00031
0.000153
-0.00017
-0.000422
-0.000521
-0.000549
-0.000631
-0.000795
-0.000868
-0.000816
-0.000606
-0.000331
4.6e-05
0.000342
0.000158
-0.000337
-0.000851
-0.001245
-0.001578
-0.001868
-0.002139
-0.002256
-0.001984
-0.001359
-0.00037
0.000669
0.001616
0.002313
0.002889
0.003172
0.00354
0.003555
0.003494
0.003111
0.00303
0.003004
0.002973
0.002602
0.002156
0.001732
0.001048
0.000236
-0.000621
-0.001336
-0.001887
-0.002216
-0.002766
-0.003224
-0.003613
-0.003825
-0.003684
-0.003197
-0.002215
-0.001114
-0.000196
0.000535
0.000949
0.000737
0.000107
-0.000855
-0.001773
-0.002595
-0.003064
-0.003138
-0.002563
-0.001733
-0.001114
-0.001257
-0.002001
-0.00341
-0.005175
-0.006885
-0.008521
-0.009618
-0.010043
-0.009666
-0.008613
-0.007176
-0.005867
-0.005181
-0.005314
-0.006146
-0.007625
-0.009167
-0.010458
-0.011227
-0.011023
-0.009619
-0.007229
-0.004309
-0.001444
0.000885
0.002424
0.003006
0.002491
0.001557
0.000321
-0.00061
-0.00066
-9e-06
0.00136
0.002768
0.004161
0.005182
0.005265
0.004263
0.002469
0.000164
-0.002284
-0.004379
-0.005418
-0.005602
-0.004486
-0.002456
0.000116
0.00267
0.004654
0.005336
0.004763
0.003174
0.000908
-0.001049
-0.00231
-0.002377
-0.001158
0.001213
0.004294
0.007601
0.009983
0.01092
0.009786
0.007034
0.003132
-0.000901
-0.004309
-0.006259
-0.006203
-0.004254
-0.000879
0.003192
0.007192
0.01011
0.011108
0.010167
0.007789
0.004729
0.001894
-8.6e-05
-0.000302
0.001369
0.004614
0.00851
0.012349
0.014879
0.015942
0.014989
0.012504
0.009068
0.005457
0.002366
0.000711
0.00044
0.001846
0.004292
0.006884
0.008629
0.00916
0.008471
0.006324
0.00352
0.00096
-0.000926
-0.001592
-0.000656
0.002012
0.00553
0.009176
0.012049
0.013579
0.013588
0.012066
0.009612
0.00676
0.004061
0.002274
0.00166
0.002661
0.004626
0.007286
0.009902
0.01185
0.012672
0.012099
0.01055
0.00825
0.005755
0.003698
0.002449
0.003024
0.004804
0.007589
0.010865
0.01407
0.01668
0.017993
0.017779
0.016103
0.013269
0.009965
0.007229
0.005312
0.004706
0.005342
0.007298
0.009629
0.011519
0.012377
0.011724
0.009478
0.006266
0.00287
0.000234
-0.000938
-0.000255
0.001995
0.0055
0.009364
0.012904
0.015442
0.016234
0.015544
0.013367
0.010841
0.00874
0.007794
0.008282
0.010043
0.012772
0.015904
0.018623
0.020128
0.019887
0.018153
0.015457
0.012221
0.009136
0.00693
0.006065
0.006221
0.007709
0.009954
0.012101
0.013652
0.014297
0.014284
0.01344
0.012225
0.011058
0.01014
0.009832
0.010192
0.011361
0.013158
0.014982
0.016426
0.017187
0.017049
0.015789
0.01379
0.011153
0.008489
0.006463
0.005423
0.005344
0.006194
0.007624
0.009434
0.010844
0.011593
0.011434
0.01069
0.00966
0.008663
0.008151
0.008705
0.010361
0.01263
0.014978
0.016984
0.018414
0.018889
0.018546
0.017491
0.016176
0.015016
0.014232
0.014135
0.014803
0.016039
0.017414
0.018683
0.019375
0.019256
0.018454
0.016885
0.015056
0.013174
0.01166
0.010842
0.010661
0.010979
0.011709
0.012414
0.013029
0.013476
0.013203
0.012568
0.011672
0.010673
0.010055
0.010081
0.010407
0.010999
0.011618
0.012239
0.012875
0.013363
0.013665
0.013899
0.014119
0.014415
0.014736
0.015284
0.015837
0.016533
0.017083
0.01732
0.017245
0.01701
0.016488
0.016065
0.015511
0.015402
0.015488
0.015988
0.016774
0.01737
0.017728
0.017835
0.017895
0.017697
0.017305
0.016901
0.016468
0.016264
0.01612
0.016037
0.015888
0.015502
0.014847
0.014122
0.013376
0.012864
0.012612
0.012558
0.012832
0.013275
0.013719
0.013826
0.013748
0.013173
0.0125
0.011613
0.010804
0.01048
0.010475
0.011093
0.011936
0.013115
0.014173
0.015116
0.015841
0.016313
0.016315
0.016155
0.015742
0.015502
0.015645
0.015993
0.016771
0.017917
0.019326
0.020567
0.021521
0.022136
0.022173
0.021557
0.020537
0.019361
0.018407
0.017996
0.017843
0.018053
0.018421
0.018795
0.01899
0.018683
0.017851
0.016564
0.014998
0.013575
0.012738
0.012898
0.013104
0.013444
0.013742
0.014033
0.014214
0.013866
0.012987
0.011879
0.010626
0.009527
0.009149
0.00936
0.010315
0.012339
0.014335
0.016217
0.017483
0.017926
0.017551
0.016359
0.014591
0.013068
0.011818
0.011431
0.012474
0.014674
0.01663
0.018052
0.017937
0.016597
0.014282
0.011456
0.008874
0.007015
0.0059
0.005987
0.007136
0.008773
0.010383
0.011234
0.010985
0.00976
0.007783
0.005666
0.003881
0.002645
0.002203
0.002774
0.0042
0.005543
0.006653
0.007486

